# MagicaVoxel @ Ephtracy

# group
g ghost

# material
mtllib ghost.mtl
usemtl palette

# normals
vn -1 0 0
vn 1 0 0
vn 0 0 1
vn 0 0 -1
vn 0 -1 0
vn 0 1 0

# texcoords
vt 0.849609 0.5
vt 0.876953 0.5
vt 0.958984 0.5

# verts
v -6.5 1 2.5
v -6.5 1 1.5
v -6.5 1 -1.5
v -6.5 1 -2.5
v -6.5 3 1.5
v -6.5 3 0.5
v -6.5 3 -0.5
v -6.5 3 -1.5
v -6.5 4 0.5
v -6.5 4 -0.5
v -6.5 10 2.5
v -6.5 10 1.5
v -6.5 10 -1.5
v -6.5 10 -2.5
v -6.5 11 1.5
v -6.5 11 -1.5
v -5.5 0 2.5
v -5.5 0 1.5
v -5.5 0 -1.5
v -5.5 0 -2.5
v -5.5 1 3.5
v -5.5 1 2.5
v -5.5 1 1.5
v -5.5 1 -1.5
v -5.5 1 -2.5
v -5.5 1 -3.5
v -5.5 2 1.5
v -5.5 2 0.5
v -5.5 2 -0.5
v -5.5 2 -1.5
v -5.5 3 4.5
v -5.5 3 3.5
v -5.5 3 1.5
v -5.5 3 0.5
v -5.5 3 -0.5
v -5.5 3 -1.5
v -5.5 3 -3.5
v -5.5 3 -4.5
v -5.5 9 4.5
v -5.5 9 3.5
v -5.5 9 -3.5
v -5.5 9 -4.5
v -5.5 10 2.5
v -5.5 10 1.5
v -5.5 10 -1.5
v -5.5 10 -2.5
v -5.5 11 3.5
v -5.5 11 2.5
v -5.5 11 1.5
v -5.5 11 -1.5
v -5.5 11 -2.5
v -5.5 11 -3.5
v -5.5 12 2.5
v -5.5 12 -2.5
v -4.5 2 4.5
v -4.5 2 3.5
v -4.5 2 -3.5
v -4.5 2 -4.5
v -4.5 3 5.5
v -4.5 3 4.5
v -4.5 3 3.5
v -4.5 3 -3.5
v -4.5 3 -4.5
v -4.5 3 -5.5
v -4.5 9 5.5
v -4.5 9 4.5
v -4.5 9 3.5
v -4.5 9 -3.5
v -4.5 9 -4.5
v -4.5 9 -5.5
v -4.5 11 4.5
v -4.5 11 3.5
v -4.5 11 2.5
v -4.5 11 -2.5
v -4.5 11 -3.5
v -4.5 11 -4.5
v -4.5 12 3.5
v -4.5 12 2.5
v -4.5 12 1.5
v -4.5 12 -1.5
v -4.5 12 -2.5
v -4.5 12 -3.5
v -4.5 13 1.5
v -4.5 13 -1.5
v -3.5 0 5.5
v -3.5 0 4.5
v -3.5 0 -4.5
v -3.5 0 -5.5
v -3.5 2 4.5
v -3.5 2 -4.5
v -3.5 3 5.5
v -3.5 3 4.5
v -3.5 3 -4.5
v -3.5 3 -5.5
v -3.5 9 5.5
v -3.5 9 4.5
v -3.5 9 -4.5
v -3.5 9 -5.5
v -3.5 11 5.5
v -3.5 11 4.5
v -3.5 11 3.5
v -3.5 11 -3.5
v -3.5 11 -4.5
v -3.5 11 -5.5
v -3.5 12 4.5
v -3.5 12 3.5
v -3.5 12 2.5
v -3.5 12 1.5
v -3.5 12 -1.5
v -3.5 12 -2.5
v -3.5 12 -3.5
v -3.5 12 -4.5
v -3.5 13 2.5
v -3.5 13 1.5
v -3.5 13 -1.5
v -3.5 13 -2.5
v -2.5 0 6.5
v -2.5 0 5.5
v -2.5 0 -5.5
v -2.5 0 -6.5
v -2.5 10 6.5
v -2.5 10 5.5
v -2.5 10 -5.5
v -2.5 10 -6.5
v -2.5 11 5.5
v -2.5 11 4.5
v -2.5 11 -4.5
v -2.5 11 -5.5
v -2.5 12 5.5
v -2.5 12 4.5
v -2.5 12 3.5
v -2.5 12 2.5
v -2.5 12 -2.5
v -2.5 12 -3.5
v -2.5 12 -4.5
v -2.5 12 -5.5
v -2.5 13 3.5
v -2.5 13 2.5
v -2.5 13 1.5
v -2.5 13 -1.5
v -2.5 13 -2.5
v -2.5 13 -3.5
v -2.5 14 1.5
v -2.5 14 -1.5
v -1.5 10 6.5
v -1.5 10 5.5
v -1.5 10 -5.5
v -1.5 10 -6.5
v -1.5 11 6.5
v -1.5 11 5.5
v -1.5 11 -5.5
v -1.5 11 -6.5
v -1.5 12 4.5
v -1.5 12 3.5
v -1.5 12 -3.5
v -1.5 12 -4.5
v -1.5 13 4.5
v -1.5 13 3.5
v -1.5 13 2.5
v -1.5 13 1.5
v -1.5 13 -1.5
v -1.5 13 -2.5
v -1.5 13 -3.5
v -1.5 13 -4.5
v -1.5 14 2.5
v -1.5 14 1.5
v -1.5 14 -1.5
v -1.5 14 -2.5
v 0.5 2 5.5
v 0.5 2 3.5
v 0.5 2 -3.5
v 0.5 2 -5.5
v 0.5 3 6.5
v 0.5 3 5.5
v 0.5 3 3.5
v 0.5 3 0.5
v 0.5 3 -0.5
v 0.5 3 -3.5
v 0.5 3 -5.5
v 0.5 3 -6.5
v 0.5 4 6.5
v 0.5 4 0.5
v 0.5 4 -0.5
v 0.5 4 -6.5
v 1.5 0 5.5
v 1.5 0 4.5
v 1.5 0 -4.5
v 1.5 0 -5.5
v 1.5 1 6.5
v 1.5 1 5.5
v 1.5 1 -5.5
v 1.5 1 -6.5
v 1.5 2 5.5
v 1.5 2 4.5
v 1.5 2 3.5
v 1.5 2 2.5
v 1.5 2 -2.5
v 1.5 2 -3.5
v 1.5 2 -4.5
v 1.5 2 -5.5
v 1.5 3 6.5
v 1.5 3 5.5
v 1.5 3 3.5
v 1.5 3 2.5
v 1.5 3 -2.5
v 1.5 3 -3.5
v 1.5 3 -5.5
v 1.5 3 -6.5
v 2.5 2 2.5
v 2.5 2 1.5
v 2.5 2 -1.5
v 2.5 2 -2.5
v 2.5 3 2.5
v 2.5 3 1.5
v 2.5 3 -1.5
v 2.5 3 -2.5
v 3.5 2 1.5
v 3.5 2 0.5
v 3.5 2 -0.5
v 3.5 2 -1.5
v 3.5 3 1.5
v 3.5 3 0.5
v 3.5 3 -0.5
v 3.5 3 -1.5
v 4.5 0 3.5
v 4.5 0 1.5
v 4.5 0 -1.5
v 4.5 0 -3.5
v 4.5 2 3.5
v 4.5 2 1.5
v 4.5 2 -1.5
v 4.5 2 -3.5
v -4.5 0 2.5
v -4.5 0 1.5
v -4.5 0 -1.5
v -4.5 0 -2.5
v -4.5 1 3.5
v -4.5 1 2.5
v -4.5 1 -2.5
v -4.5 1 -3.5
v -4.5 2 3.5
v -4.5 2 1.5
v -4.5 2 -1.5
v -4.5 2 -3.5
v -3.5 2 1.5
v -3.5 2 0.5
v -3.5 2 -0.5
v -3.5 2 -1.5
v -3.5 3 1.5
v -3.5 3 0.5
v -3.5 3 -0.5
v -3.5 3 -1.5
v -2.5 2 2.5
v -2.5 2 1.5
v -2.5 2 -1.5
v -2.5 2 -2.5
v -2.5 3 2.5
v -2.5 3 1.5
v -2.5 3 -1.5
v -2.5 3 -2.5
v -1.5 0 6.5
v -1.5 0 4.5
v -1.5 0 -4.5
v -1.5 0 -6.5
v -1.5 2 5.5
v -1.5 2 4.5
v -1.5 2 3.5
v -1.5 2 2.5
v -1.5 2 -2.5
v -1.5 2 -3.5
v -1.5 2 -4.5
v -1.5 2 -5.5
v -1.5 3 6.5
v -1.5 3 5.5
v -1.5 3 3.5
v -1.5 3 2.5
v -1.5 3 -2.5
v -1.5 3 -3.5
v -1.5 3 -5.5
v -1.5 3 -6.5
v -0.5 2 5.5
v -0.5 2 3.5
v -0.5 2 -3.5
v -0.5 2 -5.5
v -0.5 3 6.5
v -0.5 3 5.5
v -0.5 3 3.5
v -0.5 3 0.5
v -0.5 3 -0.5
v -0.5 3 -3.5
v -0.5 3 -5.5
v -0.5 3 -6.5
v -0.5 4 6.5
v -0.5 4 0.5
v -0.5 4 -0.5
v -0.5 4 -6.5
v 1.5 10 6.5
v 1.5 10 5.5
v 1.5 10 -5.5
v 1.5 10 -6.5
v 1.5 11 6.5
v 1.5 11 5.5
v 1.5 11 -5.5
v 1.5 11 -6.5
v 1.5 12 4.5
v 1.5 12 3.5
v 1.5 12 -3.5
v 1.5 12 -4.5
v 1.5 13 4.5
v 1.5 13 3.5
v 1.5 13 2.5
v 1.5 13 1.5
v 1.5 13 -1.5
v 1.5 13 -2.5
v 1.5 13 -3.5
v 1.5 13 -4.5
v 1.5 14 2.5
v 1.5 14 1.5
v 1.5 14 -1.5
v 1.5 14 -2.5
v 2.5 0 5.5
v 2.5 0 4.5
v 2.5 0 -4.5
v 2.5 0 -5.5
v 2.5 1 6.5
v 2.5 1 5.5
v 2.5 1 4.5
v 2.5 1 -4.5
v 2.5 1 -5.5
v 2.5 1 -6.5
v 2.5 10 6.5
v 2.5 10 5.5
v 2.5 10 -5.5
v 2.5 10 -6.5
v 2.5 11 5.5
v 2.5 11 4.5
v 2.5 11 -4.5
v 2.5 11 -5.5
v 2.5 12 5.5
v 2.5 12 4.5
v 2.5 12 3.5
v 2.5 12 2.5
v 2.5 12 -2.5
v 2.5 12 -3.5
v 2.5 12 -4.5
v 2.5 12 -5.5
v 2.5 13 3.5
v 2.5 13 2.5
v 2.5 13 1.5
v 2.5 13 -1.5
v 2.5 13 -2.5
v 2.5 13 -3.5
v 2.5 14 1.5
v 2.5 14 -1.5
v 3.5 1 5.5
v 3.5 1 4.5
v 3.5 1 -4.5
v 3.5 1 -5.5
v 3.5 2 4.5
v 3.5 2 -4.5
v 3.5 3 5.5
v 3.5 3 4.5
v 3.5 3 -4.5
v 3.5 3 -5.5
v 3.5 9 5.5
v 3.5 9 4.5
v 3.5 9 -4.5
v 3.5 9 -5.5
v 3.5 11 5.5
v 3.5 11 4.5
v 3.5 11 3.5
v 3.5 11 -3.5
v 3.5 11 -4.5
v 3.5 11 -5.5
v 3.5 12 4.5
v 3.5 12 3.5
v 3.5 12 2.5
v 3.5 12 1.5
v 3.5 12 -1.5
v 3.5 12 -2.5
v 3.5 12 -3.5
v 3.5 12 -4.5
v 3.5 13 2.5
v 3.5 13 1.5
v 3.5 13 -1.5
v 3.5 13 -2.5
v 4.5 2 4.5
v 4.5 2 3.5
v 4.5 2 -3.5
v 4.5 2 -4.5
v 4.5 3 5.5
v 4.5 3 4.5
v 4.5 3 3.5
v 4.5 3 -3.5
v 4.5 3 -4.5
v 4.5 3 -5.5
v 4.5 9 5.5
v 4.5 9 4.5
v 4.5 9 -4.5
v 4.5 9 -5.5
v 4.5 12 1.5
v 4.5 12 -1.5
v 4.5 13 1.5
v 4.5 13 -1.5
v 5.5 0 3.5
v 5.5 0 2.5
v 5.5 0 -2.5
v 5.5 0 -3.5
v 5.5 2 1.5
v 5.5 2 0.5
v 5.5 2 -0.5
v 5.5 2 -1.5
v 5.5 3 4.5
v 5.5 3 3.5
v 5.5 3 1.5
v 5.5 3 0.5
v 5.5 3 -0.5
v 5.5 3 -1.5
v 5.5 3 -3.5
v 5.5 3 -4.5
v 5.5 6 2.5
v 5.5 6 1.5
v 5.5 6 0.5
v 5.5 6 -0.5
v 5.5 6 -1.5
v 5.5 6 -2.5
v 5.5 7 3.5
v 5.5 7 1.5
v 5.5 7 0.5
v 5.5 7 -0.5
v 5.5 7 -1.5
v 5.5 7 -3.5
v 5.5 8 4.5
v 5.5 8 3.5
v 5.5 8 1.5
v 5.5 8 0.5
v 5.5 8 -0.5
v 5.5 8 -1.5
v 5.5 8 -3.5
v 5.5 8 -4.5
v 5.5 10 0.5
v 5.5 11 1.5
v 5.5 11 0.5
v 5.5 11 -0.5
v 5.5 11 -1.5
v 5.5 12 1.5
v 5.5 12 -1.5
v 6.5 0 2.5
v 6.5 0 1.5
v 6.5 0 -1.5
v 6.5 0 -2.5
v 6.5 3 1.5
v 6.5 3 0.5
v 6.5 3 -0.5
v 6.5 3 -1.5
v 6.5 4 0.5
v 6.5 4 -0.5
v 6.5 6 2.5
v 6.5 6 1.5
v 6.5 6 0.5
v 6.5 6 -0.5
v 6.5 6 -1.5
v 6.5 6 -2.5
v 6.5 7 3.5
v 6.5 7 1.5
v 6.5 7 0.5
v 6.5 7 -0.5
v 6.5 7 -1.5
v 6.5 7 -3.5
v 6.5 8 4.5
v 6.5 8 3.5
v 6.5 8 2.5
v 6.5 8 1.5
v 6.5 8 0.5
v 6.5 8 -0.5
v 6.5 8 -1.5
v 6.5 8 -2.5
v 6.5 8 -3.5
v 6.5 8 -4.5
v 6.5 10 2.5
v 6.5 10 0.5
v 6.5 10 -2.5
v 6.5 10 -4.5
v 6.5 11 4.5
v 6.5 11 3.5
v 6.5 11 1.5
v 6.5 11 0.5
v 6.5 11 -0.5
v 6.5 11 -1.5
v 6.5 11 -3.5
v 6.5 11 -4.5
v 6.5 12 3.5
v 6.5 12 1.5
v 6.5 12 -1.5
v 6.5 12 -3.5
v -2.5 0 6.5
v -2.5 10 6.5
v -1.5 0 6.5
v -1.5 3 6.5
v -1.5 10 6.5
v -1.5 11 6.5
v -0.5 3 6.5
v -0.5 4 6.5
v 0.5 3 6.5
v 0.5 4 6.5
v 1.5 1 6.5
v 1.5 3 6.5
v 1.5 10 6.5
v 1.5 11 6.5
v 2.5 1 6.5
v 2.5 10 6.5
v -4.5 3 5.5
v -4.5 9 5.5
v -3.5 0 5.5
v -3.5 3 5.5
v -3.5 9 5.5
v -3.5 11 5.5
v -2.5 0 5.5
v -2.5 10 5.5
v -2.5 11 5.5
v -2.5 12 5.5
v -1.5 2 5.5
v -1.5 3 5.5
v -1.5 10 5.5
v -1.5 11 5.5
v -0.5 2 5.5
v -0.5 3 5.5
v 0.5 2 5.5
v 0.5 3 5.5
v 1.5 0 5.5
v 1.5 1 5.5
v 1.5 2 5.5
v 1.5 3 5.5
v 1.5 10 5.5
v 1.5 11 5.5
v 2.5 0 5.5
v 2.5 1 5.5
v 2.5 10 5.5
v 2.5 11 5.5
v 2.5 12 5.5
v 3.5 1 5.5
v 3.5 3 5.5
v 3.5 9 5.5
v 3.5 11 5.5
v 4.5 3 5.5
v 4.5 9 5.5
v -5.5 3 4.5
v -5.5 9 4.5
v -4.5 2 4.5
v -4.5 3 4.5
v -4.5 9 4.5
v -4.5 11 4.5
v -3.5 2 4.5
v -3.5 3 4.5
v -3.5 9 4.5
v -3.5 11 4.5
v -3.5 12 4.5
v -2.5 11 4.5
v -2.5 12 4.5
v -1.5 12 4.5
v -1.5 13 4.5
v 1.5 12 4.5
v 1.5 13 4.5
v 2.5 11 4.5
v 2.5 12 4.5
v 3.5 2 4.5
v 3.5 3 4.5
v 3.5 9 4.5
v 3.5 11 4.5
v 3.5 12 4.5
v 4.5 2 4.5
v 4.5 3 4.5
v 4.5 9 4.5
v 5.5 3 4.5
v 5.5 8 4.5
v 5.5 11 4.5
v 6.5 8 4.5
v 6.5 11 4.5
v -5.5 1 3.5
v -5.5 3 3.5
v -5.5 9 3.5
v -5.5 11 3.5
v -4.5 1 3.5
v -4.5 2 3.5
v -4.5 3 3.5
v -4.5 9 3.5
v -4.5 11 3.5
v -4.5 12 3.5
v -3.5 11 3.5
v -3.5 12 3.5
v -2.5 12 3.5
v -2.5 13 3.5
v -1.5 12 3.5
v -1.5 13 3.5
v 1.5 12 3.5
v 1.5 13 3.5
v 2.5 12 3.5
v 2.5 13 3.5
v 3.5 11 3.5
v 3.5 12 3.5
v 4.5 0 3.5
v 4.5 2 3.5
v 4.5 3 3.5
v 5.5 0 3.5
v 5.5 3 3.5
v 5.5 7 3.5
v 5.5 8 3.5
v 5.5 11 3.5
v 5.5 12 3.5
v 6.5 7 3.5
v 6.5 8 3.5
v 6.5 11 3.5
v 6.5 12 3.5
v -6.5 1 2.5
v -6.5 10 2.5
v -5.5 0 2.5
v -5.5 1 2.5
v -5.5 10 2.5
v -5.5 11 2.5
v -5.5 12 2.5
v -4.5 0 2.5
v -4.5 1 2.5
v -4.5 11 2.5
v -4.5 12 2.5
v -3.5 12 2.5
v -3.5 13 2.5
v -2.5 12 2.5
v -2.5 13 2.5
v -1.5 13 2.5
v -1.5 14 2.5
v 1.5 13 2.5
v 1.5 14 2.5
v 2.5 12 2.5
v 2.5 13 2.5
v 3.5 12 2.5
v 3.5 13 2.5
v 5.5 0 2.5
v 5.5 6 2.5
v 6.5 0 2.5
v 6.5 6 2.5
v -6.5 10 1.5
v -6.5 11 1.5
v -5.5 10 1.5
v -5.5 11 1.5
v -4.5 12 1.5
v -4.5 13 1.5
v -3.5 12 1.5
v -3.5 13 1.5
v -2.5 13 1.5
v -2.5 14 1.5
v -1.5 13 1.5
v -1.5 14 1.5
v 1.5 13 1.5
v 1.5 14 1.5
v 2.5 13 1.5
v 2.5 14 1.5
v 3.5 12 1.5
v 3.5 13 1.5
v 4.5 12 1.5
v 4.5 13 1.5
v 5.5 6 1.5
v 5.5 7 1.5
v 6.5 6 1.5
v 6.5 7 1.5
v -6.5 3 -0.5
v -6.5 4 -0.5
v -5.5 2 -0.5
v -5.5 3 -0.5
v -3.5 2 -0.5
v -3.5 3 -0.5
v -0.5 3 -0.5
v -0.5 4 -0.5
v 0.5 3 -0.5
v 0.5 4 -0.5
v 3.5 2 -0.5
v 3.5 3 -0.5
v 5.5 2 -0.5
v 5.5 3 -0.5
v 5.5 6 -0.5
v 5.5 7 -0.5
v 5.5 8 -0.5
v 5.5 11 -0.5
v 6.5 3 -0.5
v 6.5 4 -0.5
v 6.5 6 -0.5
v 6.5 7 -0.5
v 6.5 8 -0.5
v 6.5 11 -0.5
v -6.5 1 -1.5
v -6.5 3 -1.5
v -5.5 0 -1.5
v -5.5 1 -1.5
v -5.5 2 -1.5
v -5.5 3 -1.5
v -4.5 0 -1.5
v -4.5 2 -1.5
v -3.5 2 -1.5
v -3.5 3 -1.5
v -2.5 2 -1.5
v -2.5 3 -1.5
v 2.5 2 -1.5
v 2.5 3 -1.5
v 3.5 2 -1.5
v 3.5 3 -1.5
v 4.5 0 -1.5
v 4.5 2 -1.5
v 5.5 2 -1.5
v 5.5 3 -1.5
v 5.5 7 -1.5
v 5.5 8 -1.5
v 5.5 11 -1.5
v 5.5 12 -1.5
v 6.5 0 -1.5
v 6.5 3 -1.5
v 6.5 7 -1.5
v 6.5 8 -1.5
v 6.5 11 -1.5
v 6.5 12 -1.5
v -2.5 2 -2.5
v -2.5 3 -2.5
v -1.5 2 -2.5
v -1.5 3 -2.5
v 1.5 2 -2.5
v 1.5 3 -2.5
v 2.5 2 -2.5
v 2.5 3 -2.5
v -1.5 2 -3.5
v -1.5 3 -3.5
v -0.5 2 -3.5
v -0.5 3 -3.5
v 0.5 2 -3.5
v 0.5 3 -3.5
v 1.5 2 -3.5
v 1.5 3 -3.5
v -3.5 0 -4.5
v -3.5 2 -4.5
v -1.5 0 -4.5
v -1.5 2 -4.5
v 1.5 0 -4.5
v 1.5 2 -4.5
v 2.5 0 -4.5
v 2.5 1 -4.5
v 3.5 1 -4.5
v 3.5 2 -4.5
v -3.5 0 4.5
v -3.5 2 4.5
v -1.5 0 4.5
v -1.5 2 4.5
v 1.5 0 4.5
v 1.5 2 4.5
v 2.5 0 4.5
v 2.5 1 4.5
v 3.5 1 4.5
v 3.5 2 4.5
v -1.5 2 3.5
v -1.5 3 3.5
v -0.5 2 3.5
v -0.5 3 3.5
v 0.5 2 3.5
v 0.5 3 3.5
v 1.5 2 3.5
v 1.5 3 3.5
v -2.5 2 2.5
v -2.5 3 2.5
v -1.5 2 2.5
v -1.5 3 2.5
v 1.5 2 2.5
v 1.5 3 2.5
v 2.5 2 2.5
v 2.5 3 2.5
v -6.5 1 1.5
v -6.5 3 1.5
v -5.5 0 1.5
v -5.5 1 1.5
v -5.5 2 1.5
v -5.5 3 1.5
v -4.5 0 1.5
v -4.5 2 1.5
v -3.5 2 1.5
v -3.5 3 1.5
v -2.5 2 1.5
v -2.5 3 1.5
v 2.5 2 1.5
v 2.5 3 1.5
v 3.5 2 1.5
v 3.5 3 1.5
v 4.5 0 1.5
v 4.5 2 1.5
v 5.5 2 1.5
v 5.5 3 1.5
v 5.5 7 1.5
v 5.5 8 1.5
v 5.5 11 1.5
v 5.5 12 1.5
v 6.5 0 1.5
v 6.5 3 1.5
v 6.5 7 1.5
v 6.5 8 1.5
v 6.5 11 1.5
v 6.5 12 1.5
v -6.5 3 0.5
v -6.5 4 0.5
v -5.5 2 0.5
v -5.5 3 0.5
v -3.5 2 0.5
v -3.5 3 0.5
v -0.5 3 0.5
v -0.5 4 0.5
v 0.5 3 0.5
v 0.5 4 0.5
v 3.5 2 0.5
v 3.5 3 0.5
v 5.5 2 0.5
v 5.5 3 0.5
v 5.5 6 0.5
v 5.5 7 0.5
v 5.5 8 0.5
v 5.5 10 0.5
v 5.5 11 0.5
v 6.5 3 0.5
v 6.5 4 0.5
v 6.5 6 0.5
v 6.5 7 0.5
v 6.5 8 0.5
v 6.5 10 0.5
v 6.5 11 0.5
v -6.5 10 -1.5
v -6.5 11 -1.5
v -5.5 10 -1.5
v -5.5 11 -1.5
v -4.5 12 -1.5
v -4.5 13 -1.5
v -3.5 12 -1.5
v -3.5 13 -1.5
v -2.5 13 -1.5
v -2.5 14 -1.5
v -1.5 13 -1.5
v -1.5 14 -1.5
v 1.5 13 -1.5
v 1.5 14 -1.5
v 2.5 13 -1.5
v 2.5 14 -1.5
v 3.5 12 -1.5
v 3.5 13 -1.5
v 4.5 12 -1.5
v 4.5 13 -1.5
v 5.5 6 -1.5
v 5.5 7 -1.5
v 6.5 6 -1.5
v 6.5 7 -1.5
v -6.5 1 -2.5
v -6.5 10 -2.5
v -5.5 0 -2.5
v -5.5 1 -2.5
v -5.5 10 -2.5
v -5.5 11 -2.5
v -5.5 12 -2.5
v -4.5 0 -2.5
v -4.5 1 -2.5
v -4.5 11 -2.5
v -4.5 12 -2.5
v -3.5 12 -2.5
v -3.5 13 -2.5
v -2.5 12 -2.5
v -2.5 13 -2.5
v -1.5 13 -2.5
v -1.5 14 -2.5
v 1.5 13 -2.5
v 1.5 14 -2.5
v 2.5 12 -2.5
v 2.5 13 -2.5
v 3.5 12 -2.5
v 3.5 13 -2.5
v 5.5 0 -2.5
v 5.5 6 -2.5
v 6.5 0 -2.5
v 6.5 6 -2.5
v -5.5 1 -3.5
v -5.5 3 -3.5
v -5.5 9 -3.5
v -5.5 11 -3.5
v -4.5 1 -3.5
v -4.5 2 -3.5
v -4.5 3 -3.5
v -4.5 9 -3.5
v -4.5 11 -3.5
v -4.5 12 -3.5
v -3.5 11 -3.5
v -3.5 12 -3.5
v -2.5 12 -3.5
v -2.5 13 -3.5
v -1.5 12 -3.5
v -1.5 13 -3.5
v 1.5 12 -3.5
v 1.5 13 -3.5
v 2.5 12 -3.5
v 2.5 13 -3.5
v 3.5 11 -3.5
v 3.5 12 -3.5
v 4.5 0 -3.5
v 4.5 2 -3.5
v 4.5 3 -3.5
v 5.5 0 -3.5
v 5.5 3 -3.5
v 5.5 7 -3.5
v 5.5 8 -3.5
v 5.5 11 -3.5
v 5.5 12 -3.5
v 6.5 7 -3.5
v 6.5 8 -3.5
v 6.5 11 -3.5
v 6.5 12 -3.5
v -5.5 3 -4.5
v -5.5 9 -4.5
v -4.5 2 -4.5
v -4.5 3 -4.5
v -4.5 9 -4.5
v -4.5 11 -4.5
v -3.5 2 -4.5
v -3.5 3 -4.5
v -3.5 9 -4.5
v -3.5 11 -4.5
v -3.5 12 -4.5
v -2.5 11 -4.5
v -2.5 12 -4.5
v -1.5 12 -4.5
v -1.5 13 -4.5
v 1.5 12 -4.5
v 1.5 13 -4.5
v 2.5 11 -4.5
v 2.5 12 -4.5
v 3.5 2 -4.5
v 3.5 3 -4.5
v 3.5 9 -4.5
v 3.5 11 -4.5
v 3.5 12 -4.5
v 4.5 2 -4.5
v 4.5 3 -4.5
v 4.5 9 -4.5
v 5.5 3 -4.5
v 5.5 8 -4.5
v 5.5 10 -4.5
v 5.5 11 -4.5
v 6.5 8 -4.5
v 6.5 10 -4.5
v 6.5 11 -4.5
v -4.5 3 -5.5
v -4.5 9 -5.5
v -3.5 0 -5.5
v -3.5 3 -5.5
v -3.5 9 -5.5
v -3.5 11 -5.5
v -2.5 0 -5.5
v -2.5 10 -5.5
v -2.5 11 -5.5
v -2.5 12 -5.5
v -1.5 2 -5.5
v -1.5 3 -5.5
v -1.5 10 -5.5
v -1.5 11 -5.5
v -0.5 2 -5.5
v -0.5 3 -5.5
v 0.5 2 -5.5
v 0.5 3 -5.5
v 1.5 0 -5.5
v 1.5 1 -5.5
v 1.5 2 -5.5
v 1.5 3 -5.5
v 1.5 10 -5.5
v 1.5 11 -5.5
v 2.5 0 -5.5
v 2.5 1 -5.5
v 2.5 10 -5.5
v 2.5 11 -5.5
v 2.5 12 -5.5
v 3.5 1 -5.5
v 3.5 3 -5.5
v 3.5 9 -5.5
v 3.5 11 -5.5
v 4.5 3 -5.5
v 4.5 9 -5.5
v -2.5 0 -6.5
v -2.5 10 -6.5
v -1.5 0 -6.5
v -1.5 3 -6.5
v -1.5 10 -6.5
v -1.5 11 -6.5
v -0.5 3 -6.5
v -0.5 4 -6.5
v 0.5 3 -6.5
v 0.5 4 -6.5
v 1.5 1 -6.5
v 1.5 3 -6.5
v 1.5 10 -6.5
v 1.5 11 -6.5
v 2.5 1 -6.5
v 2.5 10 -6.5
v -2.5 0 6.5
v -1.5 0 6.5
v -3.5 0 5.5
v -2.5 0 5.5
v 1.5 0 5.5
v 2.5 0 5.5
v -3.5 0 4.5
v -1.5 0 4.5
v 1.5 0 4.5
v 2.5 0 4.5
v 4.5 0 3.5
v 5.5 0 3.5
v -5.5 0 2.5
v -4.5 0 2.5
v 5.5 0 2.5
v 6.5 0 2.5
v -5.5 0 1.5
v -4.5 0 1.5
v 4.5 0 1.5
v 6.5 0 1.5
v -5.5 0 -1.5
v -4.5 0 -1.5
v 4.5 0 -1.5
v 6.5 0 -1.5
v -5.5 0 -2.5
v -4.5 0 -2.5
v 5.5 0 -2.5
v 6.5 0 -2.5
v 4.5 0 -3.5
v 5.5 0 -3.5
v -3.5 0 -4.5
v -1.5 0 -4.5
v 1.5 0 -4.5
v 2.5 0 -4.5
v -3.5 0 -5.5
v -2.5 0 -5.5
v 1.5 0 -5.5
v 2.5 0 -5.5
v -2.5 0 -6.5
v -1.5 0 -6.5
v 1.5 1 6.5
v 2.5 1 6.5
v 1.5 1 5.5
v 2.5 1 5.5
v 3.5 1 5.5
v 2.5 1 4.5
v 3.5 1 4.5
v -5.5 1 3.5
v -4.5 1 3.5
v -6.5 1 2.5
v -5.5 1 2.5
v -4.5 1 2.5
v -6.5 1 1.5
v -5.5 1 1.5
v -6.5 1 -1.5
v -5.5 1 -1.5
v -6.5 1 -2.5
v -5.5 1 -2.5
v -4.5 1 -2.5
v -5.5 1 -3.5
v -4.5 1 -3.5
v 2.5 1 -4.5
v 3.5 1 -4.5
v 1.5 1 -5.5
v 2.5 1 -5.5
v 3.5 1 -5.5
v 1.5 1 -6.5
v 2.5 1 -6.5
v -1.5 2 5.5
v -0.5 2 5.5
v 0.5 2 5.5
v 1.5 2 5.5
v -4.5 2 4.5
v -3.5 2 4.5
v -1.5 2 4.5
v 1.5 2 4.5
v 3.5 2 4.5
v 4.5 2 4.5
v -4.5 2 3.5
v -1.5 2 3.5
v -0.5 2 3.5
v 0.5 2 3.5
v 1.5 2 3.5
v 4.5 2 3.5
v -2.5 2 2.5
v -1.5 2 2.5
v 1.5 2 2.5
v 2.5 2 2.5
v -5.5 2 1.5
v -4.5 2 1.5
v -3.5 2 1.5
v -2.5 2 1.5
v 2.5 2 1.5
v 3.5 2 1.5
v 4.5 2 1.5
v 5.5 2 1.5
v -5.5 2 0.5
v -3.5 2 0.5
v 3.5 2 0.5
v 5.5 2 0.5
v -5.5 2 -0.5
v -3.5 2 -0.5
v 3.5 2 -0.5
v 5.5 2 -0.5
v -5.5 2 -1.5
v -4.5 2 -1.5
v -3.5 2 -1.5
v -2.5 2 -1.5
v 2.5 2 -1.5
v 3.5 2 -1.5
v 4.5 2 -1.5
v 5.5 2 -1.5
v -2.5 2 -2.5
v -1.5 2 -2.5
v 1.5 2 -2.5
v 2.5 2 -2.5
v -4.5 2 -3.5
v -1.5 2 -3.5
v -0.5 2 -3.5
v 0.5 2 -3.5
v 1.5 2 -3.5
v 4.5 2 -3.5
v -4.5 2 -4.5
v -3.5 2 -4.5
v -1.5 2 -4.5
v 1.5 2 -4.5
v 3.5 2 -4.5
v 4.5 2 -4.5
v -1.5 2 -5.5
v -0.5 2 -5.5
v 0.5 2 -5.5
v 1.5 2 -5.5
v -1.5 3 6.5
v -0.5 3 6.5
v 0.5 3 6.5
v 1.5 3 6.5
v -4.5 3 5.5
v -3.5 3 5.5
v -1.5 3 5.5
v -0.5 3 5.5
v 0.5 3 5.5
v 1.5 3 5.5
v 3.5 3 5.5
v 4.5 3 5.5
v -5.5 3 4.5
v -4.5 3 4.5
v -3.5 3 4.5
v 3.5 3 4.5
v 4.5 3 4.5
v 5.5 3 4.5
v -5.5 3 3.5
v -4.5 3 3.5
v -1.5 3 3.5
v -0.5 3 3.5
v 0.5 3 3.5
v 1.5 3 3.5
v 4.5 3 3.5
v 5.5 3 3.5
v -2.5 3 2.5
v -1.5 3 2.5
v 1.5 3 2.5
v 2.5 3 2.5
v -6.5 3 1.5
v -5.5 3 1.5
v -3.5 3 1.5
v -2.5 3 1.5
v 2.5 3 1.5
v 3.5 3 1.5
v 5.5 3 1.5
v 6.5 3 1.5
v -6.5 3 0.5
v -5.5 3 0.5
v -3.5 3 0.5
v -0.5 3 0.5
v 0.5 3 0.5
v 3.5 3 0.5
v 5.5 3 0.5
v 6.5 3 0.5
v -6.5 3 -0.5
v -5.5 3 -0.5
v -3.5 3 -0.5
v -0.5 3 -0.5
v 0.5 3 -0.5
v 3.5 3 -0.5
v 5.5 3 -0.5
v 6.5 3 -0.5
v -6.5 3 -1.5
v -5.5 3 -1.5
v -3.5 3 -1.5
v -2.5 3 -1.5
v 2.5 3 -1.5
v 3.5 3 -1.5
v 5.5 3 -1.5
v 6.5 3 -1.5
v -2.5 3 -2.5
v -1.5 3 -2.5
v 1.5 3 -2.5
v 2.5 3 -2.5
v -5.5 3 -3.5
v -4.5 3 -3.5
v -1.5 3 -3.5
v -0.5 3 -3.5
v 0.5 3 -3.5
v 1.5 3 -3.5
v 4.5 3 -3.5
v 5.5 3 -3.5
v -5.5 3 -4.5
v -4.5 3 -4.5
v -3.5 3 -4.5
v 3.5 3 -4.5
v 4.5 3 -4.5
v 5.5 3 -4.5
v -4.5 3 -5.5
v -3.5 3 -5.5
v -1.5 3 -5.5
v -0.5 3 -5.5
v 0.5 3 -5.5
v 1.5 3 -5.5
v 3.5 3 -5.5
v 4.5 3 -5.5
v -1.5 3 -6.5
v -0.5 3 -6.5
v 0.5 3 -6.5
v 1.5 3 -6.5
v -0.5 4 6.5
v 0.5 4 6.5
v -6.5 4 0.5
v -0.5 4 0.5
v 0.5 4 0.5
v 6.5 4 0.5
v -6.5 4 -0.5
v -0.5 4 -0.5
v 0.5 4 -0.5
v 6.5 4 -0.5
v -0.5 4 -6.5
v 0.5 4 -6.5
v 5.5 7 3.5
v 6.5 7 3.5
v 5.5 7 1.5
v 6.5 7 1.5
v 5.5 7 -1.5
v 6.5 7 -1.5
v 5.5 7 -3.5
v 6.5 7 -3.5
v 5.5 8 4.5
v 6.5 8 4.5
v 5.5 8 3.5
v 6.5 8 3.5
v 5.5 8 1.5
v 6.5 8 1.5
v 5.5 8 0.5
v 6.5 8 0.5
v 5.5 8 -0.5
v 6.5 8 -0.5
v 5.5 8 -1.5
v 6.5 8 -1.5
v 5.5 8 -3.5
v 6.5 8 -3.5
v 5.5 8 -4.5
v 6.5 8 -4.5
v 5.5 6 2.5
v 6.5 6 2.5
v 5.5 6 1.5
v 6.5 6 1.5
v 5.5 6 0.5
v 6.5 6 0.5
v 5.5 6 -0.5
v 6.5 6 -0.5
v 5.5 6 -1.5
v 6.5 6 -1.5
v 5.5 6 -2.5
v 6.5 6 -2.5
v 5.5 7 1.5
v 6.5 7 1.5
v 5.5 7 0.5
v 6.5 7 0.5
v 5.5 7 -0.5
v 6.5 7 -0.5
v 5.5 7 -1.5
v 6.5 7 -1.5
v -4.5 9 5.5
v -3.5 9 5.5
v 3.5 9 5.5
v 4.5 9 5.5
v -5.5 9 4.5
v -4.5 9 4.5
v -3.5 9 4.5
v 3.5 9 4.5
v 4.5 9 4.5
v -5.5 9 3.5
v -4.5 9 3.5
v -5.5 9 -3.5
v -4.5 9 -3.5
v -5.5 9 -4.5
v -4.5 9 -4.5
v -3.5 9 -4.5
v 3.5 9 -4.5
v 4.5 9 -4.5
v -4.5 9 -5.5
v -3.5 9 -5.5
v 3.5 9 -5.5
v 4.5 9 -5.5
v -2.5 10 6.5
v -1.5 10 6.5
v 1.5 10 6.5
v 2.5 10 6.5
v -2.5 10 5.5
v -1.5 10 5.5
v 1.5 10 5.5
v 2.5 10 5.5
v -6.5 10 2.5
v -5.5 10 2.5
v -6.5 10 1.5
v -5.5 10 1.5
v -6.5 10 -1.5
v -5.5 10 -1.5
v -6.5 10 -2.5
v -5.5 10 -2.5
v -2.5 10 -5.5
v -1.5 10 -5.5
v 1.5 10 -5.5
v 2.5 10 -5.5
v -2.5 10 -6.5
v -1.5 10 -6.5
v 1.5 10 -6.5
v 2.5 10 -6.5
v -1.5 11 6.5
v 1.5 11 6.5
v -3.5 11 5.5
v -2.5 11 5.5
v -1.5 11 5.5
v 1.5 11 5.5
v 2.5 11 5.5
v 3.5 11 5.5
v -4.5 11 4.5
v -3.5 11 4.5
v -2.5 11 4.5
v 2.5 11 4.5
v 3.5 11 4.5
v 5.5 11 4.5
v 6.5 11 4.5
v -5.5 11 3.5
v -4.5 11 3.5
v -3.5 11 3.5
v 3.5 11 3.5
v 5.5 11 3.5
v 6.5 11 3.5
v -5.5 11 2.5
v -4.5 11 2.5
v -6.5 11 1.5
v -5.5 11 1.5
v 5.5 11 1.5
v 6.5 11 1.5
v 5.5 11 0.5
v 6.5 11 0.5
v 5.5 11 -0.5
v 6.5 11 -0.5
v -6.5 11 -1.5
v -5.5 11 -1.5
v 5.5 11 -1.5
v 6.5 11 -1.5
v -5.5 11 -2.5
v -4.5 11 -2.5
v -5.5 11 -3.5
v -4.5 11 -3.5
v -3.5 11 -3.5
v 3.5 11 -3.5
v 5.5 11 -3.5
v 6.5 11 -3.5
v -4.5 11 -4.5
v -3.5 11 -4.5
v -2.5 11 -4.5
v 2.5 11 -4.5
v 3.5 11 -4.5
v 5.5 11 -4.5
v 6.5 11 -4.5
v -3.5 11 -5.5
v -2.5 11 -5.5
v -1.5 11 -5.5
v 1.5 11 -5.5
v 2.5 11 -5.5
v 3.5 11 -5.5
v -1.5 11 -6.5
v 1.5 11 -6.5
v -2.5 12 5.5
v 2.5 12 5.5
v -3.5 12 4.5
v -2.5 12 4.5
v -1.5 12 4.5
v 1.5 12 4.5
v 2.5 12 4.5
v 3.5 12 4.5
v -4.5 12 3.5
v -3.5 12 3.5
v -2.5 12 3.5
v -1.5 12 3.5
v 1.5 12 3.5
v 2.5 12 3.5
v 3.5 12 3.5
v 5.5 12 3.5
v 6.5 12 3.5
v -5.5 12 2.5
v -4.5 12 2.5
v -3.5 12 2.5
v -2.5 12 2.5
v 2.5 12 2.5
v 3.5 12 2.5
v -4.5 12 1.5
v -3.5 12 1.5
v 3.5 12 1.5
v 4.5 12 1.5
v 5.5 12 1.5
v 6.5 12 1.5
v -4.5 12 -1.5
v -3.5 12 -1.5
v 3.5 12 -1.5
v 4.5 12 -1.5
v 5.5 12 -1.5
v 6.5 12 -1.5
v -5.5 12 -2.5
v -4.5 12 -2.5
v -3.5 12 -2.5
v -2.5 12 -2.5
v 2.5 12 -2.5
v 3.5 12 -2.5
v -4.5 12 -3.5
v -3.5 12 -3.5
v -2.5 12 -3.5
v -1.5 12 -3.5
v 1.5 12 -3.5
v 2.5 12 -3.5
v 3.5 12 -3.5
v 5.5 12 -3.5
v 6.5 12 -3.5
v -3.5 12 -4.5
v -2.5 12 -4.5
v -1.5 12 -4.5
v 1.5 12 -4.5
v 2.5 12 -4.5
v 3.5 12 -4.5
v -2.5 12 -5.5
v 2.5 12 -5.5
v -1.5 13 4.5
v 1.5 13 4.5
v -2.5 13 3.5
v -1.5 13 3.5
v 1.5 13 3.5
v 2.5 13 3.5
v -3.5 13 2.5
v -2.5 13 2.5
v -1.5 13 2.5
v 1.5 13 2.5
v 2.5 13 2.5
v 3.5 13 2.5
v -4.5 13 1.5
v -3.5 13 1.5
v -2.5 13 1.5
v -1.5 13 1.5
v 1.5 13 1.5
v 2.5 13 1.5
v 3.5 13 1.5
v 4.5 13 1.5
v -4.5 13 -1.5
v -3.5 13 -1.5
v -2.5 13 -1.5
v -1.5 13 -1.5
v 1.5 13 -1.5
v 2.5 13 -1.5
v 3.5 13 -1.5
v 4.5 13 -1.5
v -3.5 13 -2.5
v -2.5 13 -2.5
v -1.5 13 -2.5
v 1.5 13 -2.5
v 2.5 13 -2.5
v 3.5 13 -2.5
v -2.5 13 -3.5
v -1.5 13 -3.5
v 1.5 13 -3.5
v 2.5 13 -3.5
v -1.5 13 -4.5
v 1.5 13 -4.5
v -1.5 14 2.5
v 1.5 14 2.5
v -2.5 14 1.5
v -1.5 14 1.5
v 1.5 14 1.5
v 2.5 14 1.5
v -2.5 14 -1.5
v -1.5 14 -1.5
v 1.5 14 -1.5
v 2.5 14 -1.5
v -1.5 14 -2.5
v 1.5 14 -2.5

# faces
f 5/1/1 2/1/1 1/1/1
f 8/1/1 4/1/1 3/1/1
f 9/1/1 6/1/1 5/1/1
f 10/1/1 8/1/1 7/1/1
f 11/1/1 9/1/1 5/1/1
f 11/1/1 10/1/1 9/1/1
f 11/1/1 5/1/1 1/1/1
f 12/1/1 10/1/1 11/1/1
f 13/1/1 8/1/1 10/1/1
f 13/1/1 10/1/1 12/1/1
f 13/1/1 4/1/1 8/1/1
f 14/1/1 4/1/1 13/1/1
f 15/1/1 13/1/1 12/1/1
f 16/1/1 13/1/1 15/1/1
f 22/1/1 18/1/1 17/1/1
f 23/1/1 18/1/1 22/1/1
f 24/1/1 20/1/1 19/1/1
f 25/1/1 20/1/1 24/1/1
f 32/1/1 22/1/1 21/1/1
f 33/1/1 28/1/1 27/1/1
f 34/1/1 28/1/1 33/1/1
f 35/1/1 30/1/1 29/1/1
f 36/1/1 30/1/1 35/1/1
f 37/1/1 26/1/1 25/1/1
f 39/1/1 32/1/1 31/1/1
f 40/1/1 22/1/1 32/1/1
f 40/1/1 32/1/1 39/1/1
f 41/1/1 38/1/1 37/1/1
f 41/1/1 37/1/1 25/1/1
f 42/1/1 38/1/1 41/1/1
f 43/1/1 22/1/1 40/1/1
f 46/1/1 41/1/1 25/1/1
f 47/1/1 44/1/1 43/1/1
f 47/1/1 43/1/1 40/1/1
f 48/1/1 44/1/1 47/1/1
f 49/1/1 44/1/1 48/1/1
f 50/1/1 46/1/1 45/1/1
f 51/1/1 41/1/1 46/1/1
f 51/1/1 46/1/1 50/1/1
f 52/1/1 41/1/1 51/1/1
f 53/1/1 49/1/1 48/1/1
f 53/1/1 50/1/1 49/1/1
f 53/1/1 51/1/1 50/1/1
f 54/1/1 51/1/1 53/1/1
f 60/1/1 56/1/1 55/1/1
f 61/1/1 56/1/1 60/1/1
f 62/1/1 58/1/1 57/1/1
f 63/1/1 58/1/1 62/1/1
f 65/1/1 60/1/1 59/1/1
f 66/1/1 60/1/1 65/1/1
f 69/1/1 64/1/1 63/1/1
f 70/1/1 64/1/1 69/1/1
f 71/1/1 67/1/1 66/1/1
f 72/1/1 67/1/1 71/1/1
f 75/1/1 69/1/1 68/1/1
f 76/1/1 69/1/1 75/1/1
f 77/1/1 73/1/1 72/1/1
f 78/1/1 73/1/1 77/1/1
f 81/1/1 75/1/1 74/1/1
f 82/1/1 75/1/1 81/1/1
f 83/1/1 80/1/1 79/1/1
f 84/1/1 80/1/1 83/1/1
f 89/1/1 86/1/1 85/1/1
f 90/1/1 88/1/1 87/1/1
f 91/1/1 89/1/1 85/1/1
f 92/1/1 89/1/1 91/1/1
f 93/1/1 88/1/1 90/1/1
f 94/1/1 88/1/1 93/1/1
f 99/1/1 96/1/1 95/1/1
f 100/1/1 96/1/1 99/1/1
f 103/1/1 98/1/1 97/1/1
f 104/1/1 98/1/1 103/1/1
f 105/1/1 101/1/1 100/1/1
f 106/1/1 101/1/1 105/1/1
f 111/1/1 103/1/1 102/1/1
f 112/1/1 103/1/1 111/1/1
f 113/1/1 108/1/1 107/1/1
f 114/1/1 108/1/1 113/1/1
f 115/1/1 110/1/1 109/1/1
f 116/1/1 110/1/1 115/1/1
f 121/1/1 118/1/1 117/1/1
f 122/1/1 118/1/1 121/1/1
f 123/1/1 120/1/1 119/1/1
f 124/1/1 120/1/1 123/1/1
f 129/1/1 126/1/1 125/1/1
f 130/1/1 126/1/1 129/1/1
f 135/1/1 128/1/1 127/1/1
f 136/1/1 128/1/1 135/1/1
f 137/1/1 132/1/1 131/1/1
f 138/1/1 132/1/1 137/1/1
f 141/1/1 134/1/1 133/1/1
f 142/1/1 134/1/1 141/1/1
f 143/1/1 140/1/1 139/1/1
f 144/1/1 140/1/1 143/1/1
f 149/1/1 146/1/1 145/1/1
f 150/1/1 146/1/1 149/1/1
f 151/1/1 148/1/1 147/1/1
f 152/1/1 148/1/1 151/1/1
f 157/1/1 154/1/1 153/1/1
f 158/1/1 154/1/1 157/1/1
f 163/1/1 156/1/1 155/1/1
f 164/1/1 156/1/1 163/1/1
f 165/1/1 160/1/1 159/1/1
f 166/1/1 160/1/1 165/1/1
f 167/1/1 162/1/1 161/1/1
f 168/1/1 162/1/1 167/1/1
f 174/1/1 170/1/1 169/1/1
f 175/1/1 170/1/1 174/1/1
f 178/1/1 172/1/1 171/1/1
f 179/1/1 172/1/1 178/1/1
f 181/1/1 176/1/1 175/1/1
f 181/1/1 174/1/1 173/1/1
f 181/1/1 175/1/1 174/1/1
f 182/1/1 176/1/1 181/1/1
f 183/1/1 180/1/1 179/1/1
f 183/1/1 179/1/1 178/1/1
f 183/1/1 178/1/1 177/1/1
f 184/1/1 180/1/1 183/1/1
f 190/1/1 186/1/1 185/1/1
f 191/1/1 188/1/1 187/1/1
f 193/1/1 190/1/1 189/1/1
f 193/1/1 186/1/1 190/1/1
f 194/1/1 186/1/1 193/1/1
f 199/1/1 192/1/1 191/1/1
f 199/1/1 191/1/1 187/1/1
f 200/1/1 192/1/1 199/1/1
f 201/1/1 193/1/1 189/1/1
f 202/1/1 193/1/1 201/1/1
f 203/1/1 196/1/1 195/1/1
f 204/1/1 196/1/1 203/1/1
f 205/1/1 198/1/1 197/1/1
f 206/1/1 198/1/1 205/1/1
f 207/1/1 192/1/1 200/1/1
f 208/1/1 192/1/1 207/1/1
f 213/1/1 210/1/1 209/1/1
f 214/1/1 210/1/1 213/1/1
f 215/1/1 212/1/1 211/1/1
f 216/1/1 212/1/1 215/1/1
f 221/1/1 218/1/1 217/1/1
f 222/1/1 218/1/1 221/1/1
f 223/1/1 220/1/1 219/1/1
f 224/1/1 220/1/1 223/1/1
f 229/1/1 226/1/1 225/1/1
f 230/1/1 226/1/1 229/1/1
f 231/1/1 228/1/1 227/1/1
f 232/1/1 228/1/1 231/1/1
f 233/1/2 234/1/2 238/1/2
f 235/1/2 236/1/2 239/1/2
f 237/1/2 238/1/2 241/1/2
f 238/1/2 234/1/2 242/1/2
f 241/1/2 238/1/2 242/1/2
f 239/1/2 240/1/2 243/1/2
f 235/1/2 239/1/2 243/1/2
f 243/1/2 240/1/2 244/1/2
f 245/1/2 246/1/2 249/1/2
f 249/1/2 246/1/2 250/1/2
f 247/1/2 248/1/2 251/1/2
f 251/1/2 248/1/2 252/1/2
f 253/1/2 254/1/2 257/1/2
f 257/1/2 254/1/2 258/1/2
f 255/1/2 256/1/2 259/1/2
f 259/1/2 256/1/2 260/1/2
f 261/1/2 262/1/2 265/1/2
f 265/1/2 262/1/2 266/1/2
f 263/1/2 264/1/2 271/1/2
f 271/1/2 264/1/2 272/1/2
f 261/1/2 265/1/2 273/1/2
f 273/1/2 265/1/2 274/1/2
f 267/1/2 268/1/2 275/1/2
f 275/1/2 268/1/2 276/1/2
f 269/1/2 270/1/2 277/1/2
f 277/1/2 270/1/2 278/1/2
f 272/1/2 264/1/2 279/1/2
f 279/1/2 264/1/2 280/1/2
f 281/1/2 282/1/2 286/1/2
f 286/1/2 282/1/2 287/1/2
f 283/1/2 284/1/2 290/1/2
f 290/1/2 284/1/2 291/1/2
f 287/1/2 288/1/2 293/1/2
f 285/1/2 286/1/2 293/1/2
f 286/1/2 287/1/2 293/1/2
f 293/1/2 288/1/2 294/1/2
f 291/1/2 292/1/2 295/1/2
f 290/1/2 291/1/2 295/1/2
f 289/1/2 290/1/2 295/1/2
f 295/1/2 292/1/2 296/1/2
f 297/1/2 298/1/2 301/1/2
f 301/1/2 298/1/2 302/1/2
f 299/1/2 300/1/2 303/1/2
f 303/1/2 300/1/2 304/1/2
f 305/1/2 306/1/2 309/1/2
f 309/1/2 306/1/2 310/1/2
f 307/1/2 308/1/2 315/1/2
f 315/1/2 308/1/2 316/1/2
f 311/1/2 312/1/2 317/1/2
f 317/1/2 312/1/2 318/1/2
f 313/1/2 314/1/2 319/1/2
f 319/1/2 314/1/2 320/1/2
f 321/1/2 322/1/2 326/1/2
f 326/1/2 322/1/2 327/1/2
f 323/1/2 324/1/2 328/1/2
f 328/1/2 324/1/2 329/1/2
f 325/1/2 326/1/2 331/1/2
f 331/1/2 326/1/2 332/1/2
f 329/1/2 330/1/2 333/1/2
f 333/1/2 330/1/2 334/1/2
f 335/1/2 336/1/2 339/1/2
f 339/1/2 336/1/2 340/1/2
f 337/1/2 338/1/2 345/1/2
f 345/1/2 338/1/2 346/1/2
f 341/1/2 342/1/2 347/1/2
f 347/1/2 342/1/2 348/1/2
f 343/1/2 344/1/2 351/1/2
f 351/1/2 344/1/2 352/1/2
f 349/1/2 350/1/2 353/1/2
f 353/1/2 350/1/2 354/1/2
f 355/1/2 356/1/2 359/1/2
f 357/1/2 358/1/2 360/1/2
f 355/1/2 359/1/2 361/1/2
f 361/1/2 359/1/2 362/1/2
f 360/1/2 358/1/2 363/1/2
f 363/1/2 358/1/2 364/1/2
f 365/1/2 366/1/2 369/1/2
f 369/1/2 366/1/2 370/1/2
f 367/1/2 368/1/2 373/1/2
f 373/1/2 368/1/2 374/1/2
f 370/1/2 371/1/2 375/1/2
f 375/1/2 371/1/2 376/1/2
f 372/1/2 373/1/2 381/1/2
f 381/1/2 373/1/2 382/1/2
f 377/1/2 378/1/2 383/1/2
f 383/1/2 378/1/2 384/1/2
f 379/1/2 380/1/2 385/1/2
f 385/1/2 380/1/2 386/1/2
f 387/1/2 388/1/2 392/1/2
f 392/1/2 388/1/2 393/1/2
f 389/1/2 390/1/2 394/1/2
f 394/1/2 390/1/2 395/1/2
f 391/1/2 392/1/2 397/1/2
f 397/1/2 392/1/2 398/1/2
f 395/1/2 396/1/2 399/1/2
f 399/1/2 396/1/2 400/1/2
f 401/1/2 402/1/2 403/1/2
f 403/1/2 402/1/2 404/1/2
f 405/1/2 406/1/2 414/1/2
f 409/1/2 410/1/2 415/1/2
f 415/1/2 410/1/2 416/1/2
f 411/1/2 412/1/2 417/1/2
f 417/1/2 412/1/2 418/1/2
f 407/1/2 408/1/2 419/1/2
f 413/1/2 414/1/2 421/1/2
f 414/1/2 406/1/2 421/1/2
f 419/1/2 420/1/2 426/1/2
f 407/1/2 419/1/2 426/1/2
f 421/1/2 422/1/2 427/1/2
f 413/1/2 421/1/2 427/1/2
f 427/1/2 422/1/2 428/1/2
f 423/1/2 424/1/2 429/1/2
f 429/1/2 424/1/2 430/1/2
f 425/1/2 426/1/2 431/1/2
f 426/1/2 420/1/2 432/1/2
f 431/1/2 426/1/2 432/1/2
f 413/1/2 427/1/2 433/1/2
f 433/1/2 427/1/2 434/1/2
f 429/1/2 430/1/2 435/1/2
f 430/1/2 431/1/2 435/1/2
f 428/1/2 429/1/2 435/1/2
f 435/1/2 431/1/2 436/1/2
f 436/1/2 431/1/2 437/1/2
f 437/1/2 431/1/2 438/1/2
f 432/1/2 420/1/2 439/1/2
f 439/1/2 420/1/2 440/1/2
f 436/1/2 437/1/2 441/1/2
f 441/1/2 437/1/2 443/1/2
f 443/1/2 437/1/2 444/1/2
f 442/1/2 443/1/2 446/1/2
f 444/1/2 445/1/2 446/1/2
f 443/1/2 444/1/2 446/1/2
f 446/1/2 445/1/2 447/1/2
f 448/1/2 449/1/2 452/1/2
f 450/1/2 451/1/2 455/1/2
f 452/1/2 453/1/2 456/1/2
f 454/1/2 455/1/2 457/1/2
f 452/1/2 456/1/2 458/1/2
f 456/1/2 457/1/2 458/1/2
f 448/1/2 452/1/2 458/1/2
f 458/1/2 457/1/2 459/1/2
f 459/1/2 457/1/2 460/1/2
f 457/1/2 455/1/2 461/1/2
f 460/1/2 457/1/2 461/1/2
f 455/1/2 451/1/2 462/1/2
f 461/1/2 455/1/2 462/1/2
f 462/1/2 451/1/2 463/1/2
f 459/1/2 460/1/2 465/1/2
f 465/1/2 460/1/2 466/1/2
f 461/1/2 462/1/2 467/1/2
f 467/1/2 462/1/2 468/1/2
f 464/3/2 465/3/2 471/3/2
f 471/3/2 465/3/2 472/3/2
f 472/3/2 465/3/2 473/3/2
f 468/3/2 469/3/2 476/3/2
f 476/3/2 469/3/2 477/3/2
f 477/3/2 469/3/2 478/3/2
f 473/2/2 474/2/2 480/2/2
f 470/3/2 471/3/2 480/3/2
f 471/3/2 472/3/2 480/3/2
f 472/2/2 473/2/2 480/2/2
f 480/2/2 474/2/2 481/2/2
f 478/2/2 479/2/2 482/2/2
f 477/2/2 478/2/2 482/2/2
f 476/3/2 477/3/2 482/3/2
f 475/3/2 476/3/2 482/3/2
f 482/2/2 479/2/2 483/2/2
f 480/3/2 481/3/2 484/3/2
f 470/3/2 480/3/2 484/3/2
f 484/3/2 481/3/2 485/3/2
f 485/3/2 481/3/2 486/3/2
f 486/3/2 481/3/2 487/3/2
f 482/3/2 483/3/2 488/3/2
f 475/3/2 482/3/2 488/3/2
f 488/3/2 483/3/2 489/3/2
f 489/3/2 483/3/2 490/3/2
f 490/3/2 483/3/2 491/3/2
f 485/3/2 486/3/2 492/3/2
f 492/3/2 486/3/2 493/3/2
f 489/3/2 490/3/2 494/3/2
f 494/3/2 490/3/2 495/3/2
f 498/1/3 497/1/3 496/1/3
f 499/1/3 497/1/3 498/1/3
f 500/1/3 497/1/3 499/1/3
f 502/1/3 501/1/3 500/1/3
f 502/1/3 500/1/3 499/1/3
f 503/1/3 501/1/3 502/1/3
f 505/1/3 501/1/3 503/1/3
f 507/1/3 505/1/3 504/1/3
f 508/1/3 501/1/3 505/1/3
f 508/1/3 505/1/3 507/1/3
f 509/1/3 501/1/3 508/1/3
f 510/1/3 507/1/3 506/1/3
f 510/1/3 508/1/3 507/1/3
f 511/1/3 508/1/3 510/1/3
f 515/1/3 513/1/3 512/1/3
f 516/1/3 513/1/3 515/1/3
f 518/1/3 515/1/3 514/1/3
f 518/1/3 517/1/3 516/1/3
f 518/1/3 516/1/3 515/1/3
f 519/1/3 517/1/3 518/1/3
f 520/1/3 517/1/3 519/1/3
f 524/1/3 521/1/3 520/1/3
f 524/1/3 520/1/3 519/1/3
f 525/1/3 521/1/3 524/1/3
f 526/1/3 523/1/3 522/1/3
f 527/1/3 523/1/3 526/1/3
f 532/1/3 529/1/3 528/1/3
f 533/1/3 529/1/3 532/1/3
f 535/1/3 521/1/3 525/1/3
f 536/1/3 531/1/3 530/1/3
f 537/1/3 531/1/3 536/1/3
f 538/1/3 535/1/3 534/1/3
f 539/1/3 521/1/3 535/1/3
f 539/1/3 535/1/3 538/1/3
f 540/1/3 521/1/3 539/1/3
f 541/1/3 538/1/3 537/1/3
f 541/1/3 539/1/3 538/1/3
f 542/1/3 539/1/3 541/1/3
f 543/1/3 539/1/3 542/1/3
f 544/1/3 539/1/3 543/1/3
f 545/1/3 543/1/3 542/1/3
f 546/1/3 543/1/3 545/1/3
f 550/1/3 548/1/3 547/1/3
f 551/1/3 548/1/3 550/1/3
f 553/1/3 550/1/3 549/1/3
f 554/1/3 550/1/3 553/1/3
f 555/1/3 552/1/3 551/1/3
f 556/1/3 552/1/3 555/1/3
f 558/1/3 557/1/3 556/1/3
f 559/1/3 557/1/3 558/1/3
f 562/1/3 561/1/3 560/1/3
f 563/1/3 561/1/3 562/1/3
f 569/1/3 565/1/3 564/1/3
f 570/1/3 565/1/3 569/1/3
f 571/1/3 567/1/3 566/1/3
f 572/1/3 567/1/3 571/1/3
f 573/1/3 569/1/3 568/1/3
f 574/1/3 573/1/3 572/1/3
f 575/1/3 573/1/3 574/1/3
f 576/1/3 569/1/3 573/1/3
f 576/1/3 573/1/3 575/1/3
f 577/3/3 576/3/3 575/3/3
f 578/3/3 576/3/3 577/3/3
f 583/1/3 580/1/3 579/1/3
f 584/1/3 580/1/3 583/1/3
f 585/1/3 580/1/3 584/1/3
f 586/1/3 582/1/3 581/1/3
f 587/1/3 582/1/3 586/1/3
f 589/1/3 588/1/3 587/1/3
f 590/1/3 588/1/3 589/1/3
f 593/1/3 592/1/3 591/1/3
f 594/1/3 592/1/3 593/1/3
f 597/1/3 596/1/3 595/1/3
f 598/1/3 596/1/3 597/1/3
f 604/1/3 602/1/3 601/1/3
f 604/1/3 603/1/3 602/1/3
f 605/1/3 603/1/3 604/1/3
f 608/1/3 600/1/3 599/1/3
f 609/1/3 600/1/3 608/1/3
f 610/3/3 607/3/3 606/3/3
f 611/3/3 607/3/3 610/3/3
f 612/3/3 609/3/3 608/3/3
f 613/3/3 609/3/3 612/3/3
f 617/1/3 615/1/3 614/1/3
f 618/1/3 615/1/3 617/1/3
f 621/1/3 617/1/3 616/1/3
f 622/1/3 617/1/3 621/1/3
f 623/1/3 620/1/3 619/1/3
f 624/1/3 620/1/3 623/1/3
f 627/1/3 626/1/3 625/1/3
f 628/1/3 626/1/3 627/1/3
f 631/1/3 630/1/3 629/1/3
f 632/1/3 630/1/3 631/1/3
f 635/1/3 634/1/3 633/1/3
f 636/1/3 634/1/3 635/1/3
f 639/1/3 638/1/3 637/1/3
f 640/1/3 638/1/3 639/1/3
f 643/1/3 642/1/3 641/1/3
f 644/1/3 642/1/3 643/1/3
f 647/1/3 646/1/3 645/1/3
f 648/1/3 646/1/3 647/1/3
f 651/1/3 650/1/3 649/1/3
f 652/1/3 650/1/3 651/1/3
f 655/1/3 654/1/3 653/1/3
f 656/1/3 654/1/3 655/1/3
f 659/1/3 658/1/3 657/1/3
f 660/1/3 658/1/3 659/1/3
f 663/1/3 662/1/3 661/1/3
f 664/1/3 662/1/3 663/1/3
f 668/1/3 666/1/3 665/1/3
f 669/1/3 668/1/3 667/1/3
f 670/1/3 666/1/3 668/1/3
f 670/1/3 668/1/3 669/1/3
f 671/1/3 666/1/3 670/1/3
f 672/1/3 666/1/3 671/1/3
f 676/1/3 674/1/3 673/1/3
f 677/1/3 676/1/3 675/1/3
f 678/1/3 674/1/3 676/1/3
f 678/1/3 676/1/3 677/1/3
f 683/1/3 674/1/3 678/1/3
f 684/1/3 674/1/3 683/1/3
f 685/1/3 680/1/3 679/1/3
f 686/1/3 680/1/3 685/1/3
f 687/3/3 682/3/3 681/3/3
f 688/3/3 682/3/3 687/3/3
f 692/1/3 690/1/3 689/1/3
f 693/1/3 690/1/3 692/1/3
f 694/1/3 690/1/3 693/1/3
f 695/1/3 692/1/3 691/1/3
f 695/1/3 693/1/3 692/1/3
f 696/1/3 693/1/3 695/1/3
f 699/1/3 698/1/3 697/1/3
f 700/1/3 698/1/3 699/1/3
f 703/1/3 702/1/3 701/1/3
f 704/1/3 702/1/3 703/1/3
f 707/1/3 706/1/3 705/1/3
f 713/1/3 708/1/3 707/1/3
f 713/1/3 707/1/3 705/1/3
f 714/1/3 708/1/3 713/1/3
f 715/3/3 710/3/3 709/3/3
f 716/3/3 710/3/3 715/3/3
f 717/3/3 712/3/3 711/3/3
f 718/3/3 712/3/3 717/3/3
f 721/1/3 720/1/3 719/1/3
f 722/1/3 720/1/3 721/1/3
f 725/1/3 724/1/3 723/1/3
f 726/1/3 724/1/3 725/1/3
f 729/1/3 728/1/3 727/1/3
f 730/1/3 728/1/3 729/1/3
f 733/1/3 732/1/3 731/1/3
f 734/1/3 732/1/3 733/1/3
f 737/1/3 736/1/3 735/1/3
f 738/1/3 736/1/3 737/1/3
f 741/1/3 740/1/3 739/1/3
f 742/1/3 740/1/3 741/1/3
f 743/1/3 740/1/3 742/1/3
f 744/1/3 740/1/3 743/1/3
f 745/1/4 746/1/4 747/1/4
f 747/1/4 746/1/4 748/1/4
f 749/1/4 750/1/4 751/1/4
f 751/1/4 750/1/4 752/1/4
f 752/1/4 750/1/4 753/1/4
f 753/1/4 750/1/4 754/1/4
f 755/1/4 756/1/4 757/1/4
f 757/1/4 756/1/4 758/1/4
f 759/1/4 760/1/4 761/1/4
f 761/1/4 760/1/4 762/1/4
f 763/1/4 764/1/4 765/1/4
f 765/1/4 764/1/4 766/1/4
f 767/1/4 768/1/4 769/1/4
f 769/1/4 768/1/4 770/1/4
f 771/1/4 772/1/4 774/1/4
f 774/1/4 772/1/4 775/1/4
f 775/1/4 772/1/4 776/1/4
f 773/1/4 774/1/4 777/1/4
f 774/1/4 775/1/4 777/1/4
f 777/1/4 775/1/4 778/1/4
f 779/1/4 780/1/4 781/1/4
f 781/1/4 780/1/4 782/1/4
f 783/1/4 784/1/4 785/1/4
f 785/1/4 784/1/4 786/1/4
f 787/1/4 788/1/4 789/1/4
f 789/1/4 790/1/4 795/1/4
f 787/1/4 789/1/4 795/1/4
f 795/1/4 790/1/4 796/1/4
f 791/3/4 792/3/4 797/3/4
f 797/3/4 792/3/4 798/3/4
f 793/3/4 794/3/4 799/3/4
f 799/3/4 794/3/4 800/3/4
f 801/1/4 802/1/4 804/1/4
f 803/1/4 804/1/4 805/1/4
f 804/1/4 802/1/4 806/1/4
f 805/1/4 804/1/4 806/1/4
f 806/1/4 802/1/4 807/1/4
f 807/1/4 802/1/4 808/1/4
f 809/1/4 810/1/4 812/1/4
f 811/1/4 812/1/4 813/1/4
f 812/1/4 810/1/4 814/1/4
f 813/1/4 812/1/4 814/1/4
f 814/1/4 810/1/4 820/1/4
f 820/1/4 810/1/4 821/1/4
f 815/1/4 816/1/4 822/1/4
f 822/1/4 816/1/4 823/1/4
f 817/2/4 818/2/4 824/2/4
f 818/3/4 819/3/4 825/3/4
f 824/2/4 818/2/4 825/2/4
f 825/3/4 819/3/4 826/3/4
f 827/1/4 828/1/4 829/1/4
f 829/1/4 828/1/4 830/1/4
f 831/1/4 832/1/4 833/1/4
f 833/1/4 832/1/4 834/1/4
f 835/1/4 836/1/4 837/1/4
f 837/1/4 836/1/4 838/1/4
f 839/1/4 840/1/4 841/1/4
f 841/1/4 840/1/4 842/1/4
f 843/1/4 844/1/4 845/1/4
f 845/1/4 844/1/4 846/1/4
f 847/1/4 848/1/4 849/1/4
f 849/1/4 848/1/4 850/1/4
f 851/1/4 852/1/4 854/1/4
f 854/1/4 852/1/4 855/1/4
f 853/1/4 854/1/4 858/1/4
f 858/1/4 854/1/4 859/1/4
f 856/1/4 857/1/4 860/1/4
f 860/1/4 857/1/4 861/1/4
f 862/1/4 863/1/4 864/1/4
f 864/1/4 863/1/4 865/1/4
f 866/1/4 867/1/4 868/1/4
f 868/1/4 867/1/4 869/1/4
f 870/1/4 871/1/4 872/1/4
f 872/1/4 871/1/4 873/1/4
f 874/1/4 875/1/4 876/1/4
f 876/1/4 875/1/4 877/1/4
f 878/1/4 879/1/4 882/1/4
f 882/1/4 879/1/4 883/1/4
f 883/1/4 879/1/4 884/1/4
f 880/1/4 881/1/4 885/1/4
f 885/1/4 881/1/4 886/1/4
f 886/1/4 887/1/4 888/1/4
f 888/1/4 887/1/4 889/1/4
f 890/1/4 891/1/4 892/1/4
f 892/1/4 891/1/4 893/1/4
f 894/1/4 895/1/4 896/1/4
f 896/1/4 895/1/4 897/1/4
f 900/1/4 901/1/4 903/1/4
f 901/1/4 902/1/4 903/1/4
f 903/1/4 902/1/4 904/1/4
f 898/1/4 899/1/4 907/1/4
f 907/1/4 899/1/4 908/1/4
f 905/3/4 906/3/4 909/3/4
f 909/3/4 906/3/4 910/3/4
f 907/3/4 908/3/4 911/3/4
f 911/3/4 908/3/4 912/3/4
f 913/1/4 914/1/4 916/1/4
f 916/1/4 914/1/4 917/1/4
f 915/1/4 916/1/4 919/1/4
f 919/1/4 916/1/4 920/1/4
f 917/1/4 918/1/4 921/1/4
f 921/1/4 918/1/4 922/1/4
f 922/1/4 923/1/4 924/1/4
f 924/1/4 923/1/4 925/1/4
f 926/1/4 927/1/4 928/1/4
f 928/1/4 927/1/4 929/1/4
f 930/1/4 931/1/4 935/1/4
f 935/1/4 931/1/4 936/1/4
f 932/1/4 933/1/4 937/1/4
f 937/1/4 933/1/4 938/1/4
f 934/1/4 935/1/4 939/1/4
f 938/1/4 939/1/4 940/1/4
f 940/1/4 939/1/4 941/1/4
f 939/1/4 935/1/4 942/1/4
f 941/1/4 939/1/4 942/1/4
f 942/1/4 935/1/4 943/1/4
f 941/2/4 942/2/4 944/2/4
f 942/3/4 943/3/4 945/3/4
f 944/2/4 942/2/4 945/2/4
f 945/3/4 943/3/4 946/3/4
f 947/1/4 948/1/4 950/1/4
f 950/1/4 948/1/4 951/1/4
f 949/1/4 950/1/4 953/1/4
f 951/1/4 952/1/4 953/1/4
f 950/1/4 951/1/4 953/1/4
f 953/1/4 952/1/4 954/1/4
f 954/1/4 952/1/4 955/1/4
f 955/1/4 956/1/4 959/1/4
f 954/1/4 955/1/4 959/1/4
f 959/1/4 956/1/4 960/1/4
f 957/1/4 958/1/4 961/1/4
f 961/1/4 958/1/4 962/1/4
f 963/1/4 964/1/4 967/1/4
f 967/1/4 964/1/4 968/1/4
f 960/1/4 956/1/4 970/1/4
f 965/1/4 966/1/4 971/1/4
f 971/1/4 966/1/4 972/1/4
f 969/1/4 970/1/4 973/1/4
f 970/1/4 956/1/4 974/1/4
f 973/1/4 970/1/4 974/1/4
f 974/1/4 956/1/4 975/1/4
f 972/1/4 973/1/4 976/1/4
f 973/1/4 974/1/4 976/1/4
f 976/1/4 974/1/4 977/1/4
f 977/1/4 974/1/4 978/1/4
f 978/1/4 974/1/4 979/1/4
f 977/1/4 978/1/4 980/1/4
f 980/1/4 978/1/4 981/1/4
f 982/1/4 983/1/4 984/1/4
f 984/1/4 983/1/4 985/1/4
f 985/1/4 983/1/4 986/1/4
f 986/1/4 987/1/4 988/1/4
f 985/1/4 986/1/4 988/1/4
f 988/1/4 987/1/4 989/1/4
f 989/1/4 987/1/4 991/1/4
f 990/1/4 991/1/4 993/1/4
f 991/1/4 987/1/4 994/1/4
f 993/1/4 991/1/4 994/1/4
f 994/1/4 987/1/4 995/1/4
f 992/1/4 993/1/4 996/1/4
f 993/1/4 994/1/4 996/1/4
f 996/1/4 994/1/4 997/1/4
f 1001/1/5 999/1/5 998/1/5
f 1004/1/5 1001/1/5 1000/1/5
f 1005/1/5 999/1/5 1001/1/5
f 1005/1/5 1001/1/5 1004/1/5
f 1006/1/5 1003/1/5 1002/1/5
f 1007/1/5 1003/1/5 1006/1/5
f 1012/1/5 1009/1/5 1008/1/5
f 1014/1/5 1011/1/5 1010/1/5
f 1015/1/5 1011/1/5 1014/1/5
f 1016/1/5 1013/1/5 1012/1/5
f 1016/1/5 1012/1/5 1008/1/5
f 1017/1/5 1013/1/5 1016/1/5
f 1022/1/5 1019/1/5 1018/1/5
f 1023/1/5 1019/1/5 1022/1/5
f 1024/1/5 1021/1/5 1020/1/5
f 1025/1/5 1021/1/5 1024/1/5
f 1026/1/5 1024/1/5 1020/1/5
f 1027/1/5 1024/1/5 1026/1/5
f 1032/1/5 1029/1/5 1028/1/5
f 1033/1/5 1029/1/5 1032/1/5
f 1034/1/5 1031/1/5 1030/1/5
f 1035/1/5 1031/1/5 1034/1/5
f 1036/1/5 1029/1/5 1033/1/5
f 1037/1/5 1029/1/5 1036/1/5
f 1040/1/5 1039/1/5 1038/1/5
f 1041/1/5 1039/1/5 1040/1/5
f 1043/1/5 1042/1/5 1041/1/5
f 1044/1/5 1042/1/5 1043/1/5
f 1048/1/5 1046/1/5 1045/1/5
f 1049/1/5 1046/1/5 1048/1/5
f 1050/1/5 1048/1/5 1047/1/5
f 1051/1/5 1048/1/5 1050/1/5
f 1054/1/5 1053/1/5 1052/1/5
f 1055/1/5 1053/1/5 1054/1/5
f 1057/1/5 1056/1/5 1055/1/5
f 1058/1/5 1056/1/5 1057/1/5
f 1062/1/5 1060/1/5 1059/1/5
f 1063/1/5 1060/1/5 1062/1/5
f 1064/1/5 1062/1/5 1061/1/5
f 1065/1/5 1062/1/5 1064/1/5
f 1072/1/5 1067/1/5 1066/1/5
f 1073/1/5 1069/1/5 1068/1/5
f 1076/1/5 1071/1/5 1070/1/5
f 1076/1/5 1072/1/5 1071/1/5
f 1077/1/5 1067/1/5 1072/1/5
f 1077/1/5 1072/1/5 1076/1/5
f 1078/1/5 1067/1/5 1077/1/5
f 1079/1/5 1075/1/5 1074/1/5
f 1079/1/5 1074/1/5 1073/1/5
f 1079/1/5 1073/1/5 1068/1/5
f 1080/1/5 1075/1/5 1079/1/5
f 1081/1/5 1075/1/5 1080/1/5
f 1082/1/5 1077/1/5 1076/1/5
f 1083/1/5 1077/1/5 1082/1/5
f 1084/1/5 1081/1/5 1080/1/5
f 1085/1/5 1081/1/5 1084/1/5
f 1087/1/5 1082/1/5 1076/1/5
f 1088/1/5 1082/1/5 1087/1/5
f 1089/1/5 1082/1/5 1088/1/5
f 1090/1/5 1081/1/5 1085/1/5
f 1091/1/5 1081/1/5 1090/1/5
f 1092/1/5 1081/1/5 1091/1/5
f 1094/1/5 1087/1/5 1086/1/5
f 1094/1/5 1088/1/5 1087/1/5
f 1095/1/5 1088/1/5 1094/1/5
f 1096/1/5 1092/1/5 1091/1/5
f 1096/1/5 1093/1/5 1092/1/5
f 1097/1/5 1093/1/5 1096/1/5
f 1102/1/5 1099/1/5 1098/1/5
f 1103/1/5 1099/1/5 1102/1/5
f 1104/1/5 1099/1/5 1103/1/5
f 1107/1/5 1101/1/5 1100/1/5
f 1108/1/5 1101/1/5 1107/1/5
f 1109/1/5 1101/1/5 1108/1/5
f 1110/1/5 1105/1/5 1104/1/5
f 1110/1/5 1104/1/5 1103/1/5
f 1113/1/5 1108/1/5 1107/1/5
f 1113/1/5 1107/1/5 1106/1/5
f 1114/1/5 1111/1/5 1110/1/5
f 1114/1/5 1110/1/5 1103/1/5
f 1115/1/5 1111/1/5 1114/1/5
f 1118/1/5 1113/1/5 1112/1/5
f 1119/1/5 1108/1/5 1113/1/5
f 1119/1/5 1113/1/5 1118/1/5
f 1120/1/5 1116/1/5 1115/1/5
f 1120/1/5 1115/1/5 1114/1/5
f 1121/1/5 1116/1/5 1120/1/5
f 1122/1/5 1116/1/5 1121/1/5
f 1123/1/5 1118/1/5 1117/1/5
f 1123/1/5 1119/1/5 1118/1/5
f 1124/1/5 1119/1/5 1123/1/5
f 1125/1/5 1119/1/5 1124/1/5
f 1126/1/5 1116/1/5 1122/1/5
f 1127/1/5 1116/1/5 1126/1/5
f 1128/1/5 1123/1/5 1117/1/5
f 1129/1/5 1123/1/5 1128/1/5
f 1136/1/5 1131/1/5 1130/1/5
f 1137/1/5 1131/1/5 1136/1/5
f 1138/1/5 1133/1/5 1132/1/5
f 1139/1/5 1133/1/5 1138/1/5
f 1143/1/5 1135/1/5 1134/1/5
f 1144/1/5 1135/1/5 1143/1/5
f 1145/1/5 1141/1/5 1140/1/5
f 1146/1/5 1141/1/5 1145/1/5
f 1148/1/5 1143/1/5 1142/1/5
f 1149/1/5 1143/1/5 1148/1/5
f 1154/1/5 1147/1/5 1146/1/5
f 1155/1/5 1147/1/5 1154/1/5
f 1157/1/5 1151/1/5 1150/1/5
f 1158/1/5 1153/1/5 1152/1/5
f 1163/1/5 1157/1/5 1156/1/5
f 1164/1/5 1159/1/5 1158/1/5
f 1168/1/5 1161/1/5 1160/1/5
f 1169/1/5 1161/1/5 1168/1/5
f 1170/1/5 1163/1/5 1162/1/5
f 1171/1/5 1151/1/5 1157/1/5
f 1171/1/5 1163/1/5 1170/1/5
f 1171/1/5 1157/1/5 1163/1/5
f 1172/1/5 1165/1/5 1164/1/5
f 1172/1/5 1158/1/5 1152/1/5
f 1172/1/5 1164/1/5 1158/1/5
f 1173/1/5 1165/1/5 1172/1/5
f 1174/1/5 1167/1/5 1166/1/5
f 1175/1/5 1167/1/5 1174/1/5
f 1184/1/5 1177/1/5 1176/1/5
f 1185/1/5 1177/1/5 1184/1/5
f 1186/1/5 1179/1/5 1178/1/5
f 1187/1/5 1179/1/5 1186/1/5
f 1188/1/5 1181/1/5 1180/1/5
f 1189/1/5 1181/1/5 1188/1/5
f 1190/1/5 1183/1/5 1182/1/5
f 1191/1/5 1183/1/5 1190/1/5
f 1192/1/5 1179/1/5 1187/1/5
f 1193/1/5 1179/1/5 1192/1/5
f 1194/1/5 1188/1/5 1180/1/5
f 1195/1/5 1188/1/5 1194/1/5
f 1198/1/5 1179/1/5 1193/1/5
f 1199/1/5 1179/1/5 1198/1/5
f 1200/1/5 1194/1/5 1180/1/5
f 1201/1/5 1194/1/5 1200/1/5
f 1204/1/5 1197/1/5 1196/1/5
f 1205/1/5 1197/1/5 1204/1/5
f 1208/1/5 1203/1/5 1202/1/5
f 1209/1/5 1203/1/5 1208/1/5
f 1210/1/5 1206/1/5 1205/1/5
f 1211/1/5 1206/1/5 1210/1/5
f 1216/1/5 1208/1/5 1207/1/5
f 1217/1/5 1208/1/5 1216/1/5
f 1218/1/5 1213/1/5 1212/1/5
f 1219/1/5 1213/1/5 1218/1/5
f 1220/1/5 1215/1/5 1214/1/5
f 1221/1/5 1215/1/5 1220/1/5
f 1225/1/5 1223/1/5 1222/1/5
f 1226/1/5 1223/1/5 1225/1/5
f 1228/1/5 1225/1/5 1224/1/5
f 1228/1/5 1227/1/5 1226/1/5
f 1228/1/5 1226/1/5 1225/1/5
f 1229/1/5 1227/1/5 1228/1/5
f 1230/1/5 1227/1/5 1229/1/5
f 1231/1/5 1227/1/5 1230/1/5
f 1232/1/5 1230/1/5 1229/1/5
f 1233/1/5 1230/1/5 1232/1/5
f 1236/3/5 1235/3/5 1234/3/5
f 1237/3/5 1235/3/5 1236/3/5
f 1240/3/5 1239/3/5 1238/3/5
f 1241/3/5 1239/3/5 1240/3/5
f 1244/3/5 1243/3/5 1242/3/5
f 1245/3/5 1243/3/5 1244/3/5
f 1248/2/5 1247/2/5 1246/2/5
f 1249/2/5 1247/2/5 1248/2/5
f 1252/3/5 1251/3/5 1250/3/5
f 1253/3/5 1251/3/5 1252/3/5
f 1256/2/5 1255/2/5 1254/2/5
f 1257/2/5 1255/2/5 1256/2/5
f 1258/1/6 1259/1/6 1260/1/6
f 1260/1/6 1259/1/6 1261/1/6
f 1262/1/6 1263/1/6 1264/1/6
f 1264/1/6 1263/1/6 1265/1/6
f 1266/1/6 1267/1/6 1268/1/6
f 1268/1/6 1267/1/6 1269/1/6
f 1270/1/6 1271/1/6 1272/1/6
f 1272/1/6 1271/1/6 1273/1/6
f 1274/1/6 1275/1/6 1276/1/6
f 1276/1/6 1275/1/6 1277/1/6
f 1278/1/6 1279/1/6 1283/1/6
f 1283/1/6 1279/1/6 1284/1/6
f 1280/1/6 1281/1/6 1285/1/6
f 1285/1/6 1281/1/6 1286/1/6
f 1282/1/6 1283/1/6 1287/1/6
f 1287/1/6 1283/1/6 1288/1/6
f 1289/1/6 1290/1/6 1291/1/6
f 1291/1/6 1290/1/6 1292/1/6
f 1292/1/6 1293/1/6 1296/1/6
f 1296/1/6 1293/1/6 1297/1/6
f 1294/1/6 1295/1/6 1298/1/6
f 1298/1/6 1295/1/6 1299/1/6
f 1300/1/6 1301/1/6 1304/1/6
f 1304/1/6 1301/1/6 1305/1/6
f 1302/1/6 1303/1/6 1306/1/6
f 1306/1/6 1303/1/6 1307/1/6
f 1308/1/6 1309/1/6 1310/1/6
f 1310/1/6 1309/1/6 1311/1/6
f 1312/1/6 1313/1/6 1314/1/6
f 1314/1/6 1313/1/6 1315/1/6
f 1316/1/6 1317/1/6 1320/1/6
f 1320/1/6 1317/1/6 1321/1/6
f 1318/1/6 1319/1/6 1322/1/6
f 1322/1/6 1319/1/6 1323/1/6
f 1324/1/6 1325/1/6 1328/1/6
f 1328/1/6 1325/1/6 1329/1/6
f 1326/1/6 1327/1/6 1333/1/6
f 1333/1/6 1327/1/6 1334/1/6
f 1330/1/6 1331/1/6 1335/1/6
f 1335/1/6 1331/1/6 1336/1/6
f 1332/1/6 1333/1/6 1340/1/6
f 1340/1/6 1333/1/6 1341/1/6
f 1336/1/6 1337/1/6 1342/1/6
f 1337/3/6 1338/3/6 1343/3/6
f 1342/1/6 1337/1/6 1343/1/6
f 1343/3/6 1338/3/6 1344/3/6
f 1339/1/6 1340/1/6 1345/1/6
f 1345/1/6 1340/1/6 1346/1/6
f 1349/3/6 1350/3/6 1351/3/6
f 1351/3/6 1350/3/6 1352/3/6
f 1347/1/6 1348/1/6 1355/1/6
f 1355/1/6 1348/1/6 1356/1/6
f 1353/3/6 1354/3/6 1357/3/6
f 1357/3/6 1354/3/6 1358/3/6
f 1359/1/6 1360/1/6 1361/1/6
f 1361/1/6 1360/1/6 1362/1/6
f 1362/1/6 1363/1/6 1367/1/6
f 1367/1/6 1363/1/6 1368/1/6
f 1364/1/6 1365/1/6 1371/1/6
f 1365/3/6 1366/3/6 1372/3/6
f 1371/1/6 1365/1/6 1372/1/6
f 1372/3/6 1366/3/6 1373/3/6
f 1368/1/6 1369/1/6 1374/1/6
f 1374/1/6 1369/1/6 1375/1/6
f 1370/1/6 1371/1/6 1378/1/6
f 1378/1/6 1371/1/6 1379/1/6
f 1376/1/6 1377/1/6 1380/1/6
f 1380/1/6 1377/1/6 1381/1/6
f 1382/1/6 1383/1/6 1385/1/6
f 1385/1/6 1383/1/6 1386/1/6
f 1386/1/6 1383/1/6 1387/1/6
f 1387/1/6 1383/1/6 1388/1/6
f 1384/1/6 1385/1/6 1391/1/6
f 1385/1/6 1386/1/6 1391/1/6
f 1391/1/6 1386/1/6 1392/1/6
f 1392/1/6 1386/1/6 1393/1/6
f 1387/1/6 1388/1/6 1394/1/6
f 1388/1/6 1389/1/6 1394/1/6
f 1394/1/6 1389/1/6 1395/1/6
f 1395/1/6 1389/1/6 1396/1/6
f 1391/1/6 1392/1/6 1400/1/6
f 1390/1/6 1391/1/6 1400/1/6
f 1400/1/6 1392/1/6 1401/1/6
f 1401/1/6 1392/1/6 1402/1/6
f 1395/1/6 1396/1/6 1403/1/6
f 1396/1/6 1397/1/6 1403/1/6
f 1403/1/6 1397/1/6 1404/1/6
f 1400/1/6 1401/1/6 1405/1/6
f 1399/1/6 1400/1/6 1405/1/6
f 1405/1/6 1401/1/6 1406/1/6
f 1404/1/6 1397/1/6 1407/1/6
f 1407/1/6 1397/1/6 1408/1/6
f 1397/3/6 1398/3/6 1409/3/6
f 1408/1/6 1397/1/6 1409/1/6
f 1409/3/6 1398/3/6 1410/3/6
f 1399/1/6 1405/1/6 1411/1/6
f 1408/1/6 1409/1/6 1414/1/6
f 1414/1/6 1409/1/6 1415/1/6
f 1411/1/6 1412/1/6 1417/1/6
f 1399/1/6 1411/1/6 1417/1/6
f 1417/1/6 1412/1/6 1418/1/6
f 1418/1/6 1412/1/6 1419/1/6
f 1414/1/6 1415/1/6 1422/1/6
f 1413/1/6 1414/1/6 1422/1/6
f 1419/1/6 1420/1/6 1423/1/6
f 1418/1/6 1419/1/6 1423/1/6
f 1423/1/6 1420/1/6 1424/1/6
f 1424/1/6 1420/1/6 1425/1/6
f 1421/1/6 1422/1/6 1428/1/6
f 1422/1/6 1415/1/6 1429/1/6
f 1428/1/6 1422/1/6 1429/1/6
f 1415/3/6 1416/3/6 1430/3/6
f 1429/1/6 1415/1/6 1430/1/6
f 1430/3/6 1416/3/6 1431/3/6
f 1425/1/6 1426/1/6 1432/1/6
f 1424/1/6 1425/1/6 1432/1/6
f 1432/1/6 1426/1/6 1433/1/6
f 1433/1/6 1426/1/6 1434/1/6
f 1428/1/6 1429/1/6 1435/1/6
f 1427/1/6 1428/1/6 1435/1/6
f 1435/1/6 1429/1/6 1436/1/6
f 1436/1/6 1429/1/6 1437/1/6
f 1433/1/6 1434/1/6 1438/1/6
f 1435/1/6 1436/1/6 1438/1/6
f 1434/1/6 1435/1/6 1438/1/6
f 1438/1/6 1436/1/6 1439/1/6
f 1440/1/6 1441/1/6 1443/1/6
f 1443/1/6 1441/1/6 1444/1/6
f 1442/1/6 1443/1/6 1447/1/6
f 1444/1/6 1445/1/6 1447/1/6
f 1443/1/6 1444/1/6 1447/1/6
f 1447/1/6 1445/1/6 1448/1/6
f 1448/1/6 1445/1/6 1449/1/6
f 1449/1/6 1445/1/6 1450/1/6
f 1446/1/6 1447/1/6 1453/1/6
f 1447/1/6 1448/1/6 1453/1/6
f 1453/1/6 1448/1/6 1454/1/6
f 1454/1/6 1448/1/6 1455/1/6
f 1449/1/6 1450/1/6 1456/1/6
f 1450/1/6 1451/1/6 1456/1/6
f 1456/1/6 1451/1/6 1457/1/6
f 1457/1/6 1451/1/6 1458/1/6
f 1453/1/6 1454/1/6 1460/1/6
f 1452/1/6 1453/1/6 1460/1/6
f 1460/1/6 1454/1/6 1461/1/6
f 1461/1/6 1454/1/6 1462/1/6
f 1458/1/6 1459/1/6 1465/1/6
f 1457/1/6 1458/1/6 1465/1/6
f 1465/1/6 1459/1/6 1466/1/6
f 1466/1/6 1459/1/6 1467/1/6
f 1462/1/6 1463/1/6 1468/1/6
f 1461/1/6 1462/1/6 1468/1/6
f 1468/1/6 1463/1/6 1469/1/6
f 1469/1/6 1463/1/6 1470/1/6
f 1465/1/6 1466/1/6 1471/1/6
f 1464/1/6 1465/1/6 1471/1/6
f 1471/1/6 1466/1/6 1472/1/6
f 1472/1/6 1466/1/6 1473/1/6
f 1469/1/6 1470/1/6 1474/1/6
f 1471/1/6 1472/1/6 1474/1/6
f 1470/1/6 1471/1/6 1474/1/6
f 1474/1/6 1472/1/6 1475/1/6
f 1475/1/6 1472/1/6 1476/1/6
f 1476/1/6 1472/1/6 1477/1/6
f 1475/1/6 1476/1/6 1478/1/6
f 1478/1/6 1476/1/6 1479/1/6
f 1480/1/6 1481/1/6 1483/1/6
f 1483/1/6 1481/1/6 1484/1/6
f 1482/1/6 1483/1/6 1486/1/6
f 1484/1/6 1485/1/6 1486/1/6
f 1483/1/6 1484/1/6 1486/1/6
f 1486/1/6 1485/1/6 1487/1/6
f 1487/1/6 1485/1/6 1488/1/6
f 1488/1/6 1485/1/6 1489/1/6
f 1487/1/6 1488/1/6 1490/1/6
f 1490/1/6 1488/1/6 1491/1/6
